{
  "page": 1,
  "total_results": 78725,
  "total_pages": 3937,
  "results": [
    {
      "original_name": "盾の勇者の成り上がり",
      "genre_ids": [
        16,
        18,
        10759,
        10765
      ],
      "name": "Tate no Yuusha no Nariagari",
      "popularity": 108.459,
      "origin_country": [],
      "vote_count": 5,
      "first_air_date": "2019-01-09",
      "backdrop_path": "/qSgBzXdu6QwVVeqOYOlHolkLRxZ.jpg",
      "original_language": "ja",
      "id": 83095,
      "vote_average": 7.8,
      "overview": "Naofumi est projeté dans un monde proche en tout lieu d’un jeu de rôle d’heroic fantasy. Mais alors que d’autres héros ont été dotés d’armes offensives redoutables, Naofumi hérite d’un bouclier aux capacités limitées pour progresser dans ce jeu où le danger peut surgir à chaque instant. Trahi par sa partenaire et vilipendé par la population, le jeune homme ne peut désormais compter que sur lui-même pour survivre dans cet univers hostile… et peut-être sur une jeune fille désœuvrée aux ressources insoupçonnées.",
      "poster_path": "/uZP1dCiOndbdE8AUu54vDVM3rUc.jpg"
    },
    {
      "original_name": "Casey Neistat Vlog",
      "genre_ids": [
        10764
      ],
      "name": "Casey Neistat Vlog",
      "popularity": 1.332,
      "origin_country": [
        "US"
      ],
      "vote_count": 5,
      "first_air_date": "2015-03-26",
      "backdrop_path": null,
      "original_language": "en",
      "id": 68311,
      "vote_average": 10,
      "overview": "",
      "poster_path": "/h1AaHftlM5Qp4qqHWJzFyDLtqxk.jpg"
    },
    {
      "original_name": "Las Fierbinţi",
      "genre_ids": [
        35
      ],
      "name": "Las Fierbinţi",
      "popularity": 1.96,
      "origin_country": [
        "RO"
      ],
      "vote_count": 4,
      "first_air_date": "2012-03-01",
      "backdrop_path": null,
      "original_language": "ro",
      "id": 46917,
      "vote_average": 10,
      "overview": "",
      "poster_path": "/cLQgMd9dWuMudKPJfPGNstQFTo8.jpg"
    },
    {
      "original_name": "Navarro",
      "genre_ids": [
        80,
        9648
      ],
      "name": "Navarro",
      "popularity": 0.999,
      "origin_country": [
        "FR"
      ],
      "vote_count": 4,
      "first_air_date": "1989-10-26",
      "backdrop_path": "/tiXmhdEGuB5lVxfdlru7S2LUx21.jpg",
      "original_language": "fr",
      "id": 42456,
      "vote_average": 10,
      "overview": "",
      "poster_path": "/hZhBd0aW5Up5WeQlsOod8149cFl.jpg"
    },
    {
      "original_name": "Monaco Franze",
      "genre_ids": [
        35
      ],
      "name": "Monaco Franze",
      "popularity": 1.4,
      "origin_country": [
        "DE"
      ],
      "vote_count": 4,
      "first_air_date": "1983-03-03",
      "backdrop_path": "/fYdqFCqlYkv12NOrxThqCpUVljc.jpg",
      "original_language": "de",
      "id": 41003,
      "vote_average": 10,
      "overview": "",
      "poster_path": "/jUWagwP3hh9ft7FaAWjvdpkhjb8.jpg"
    },
    {
      "original_name": "Popular Mechanics for Kids",
      "genre_ids": [
        99,
        10751,
        10762
      ],
      "name": "Popular Mechanics for Kids",
      "popularity": 2.387,
      "origin_country": [
        "CA"
      ],
      "vote_count": 5,
      "first_air_date": "1997-09-07",
      "backdrop_path": "/pj9R0IQQh3JpW0x4qB64HW9RHnq.jpg",
      "original_language": "en",
      "id": 14213,
      "vote_average": 9.6,
      "overview": "",
      "poster_path": "/xLEr9rQdq4yZt8GLbSQBFxqh9y0.jpg"
    },
    {
      "original_name": "Каменская - 5",
      "genre_ids": [
        35,
        80,
        18,
        9648,
        10759
      ],
      "name": "Каменская - 5",
      "popularity": 0.6,
      "origin_country": [
        "RU"
      ],
      "vote_count": 3,
      "first_air_date": "2008-11-16",
      "backdrop_path": "/xa58sDKGH7DQVnL2qnd3sITshAr.jpg",
      "original_language": "ru",
      "id": 80524,
      "vote_average": 10,
      "overview": "",
      "poster_path": "/zDUeBIBXYff16Gzgy1m7xfypSao.jpg"
    },
    {
      "original_name": "Каменская - 4",
      "genre_ids": [
        35,
        80,
        18,
        9648,
        10759
      ],
      "name": "Каменская - 4",
      "popularity": 0.989,
      "origin_country": [
        "RU"
      ],
      "vote_count": 3,
      "first_air_date": "2005-12-09",
      "backdrop_path": "/iIrs0SLBMyUzDQxg7GQopA9HaTM.jpg",
      "original_language": "ru",
      "id": 80523,
      "vote_average": 10,
      "overview": "",
      "poster_path": "/3rxfBDBlzvaLDKXUhZxoEsXMKeS.jpg"
    },
    {
      "original_name": "Каменская - 3",
      "genre_ids": [
        35,
        80,
        18,
        9648,
        10759
      ],
      "name": "Каменская - 3",
      "popularity": 1.269,
      "origin_country": [
        "RU"
      ],
      "vote_count": 3,
      "first_air_date": "2003-09-29",
      "backdrop_path": null,
      "original_language": "ru",
      "id": 80519,
      "vote_average": 10,
      "overview": "",
      "poster_path": "/zZxTw8Zq0Amte1MImSkJiBlXZgf.jpg"
    },
    {
      "original_name": "Каменская - 2",
      "genre_ids": [
        35,
        80,
        18,
        9648,
        10759
      ],
      "name": "Каменская - 2",
      "popularity": 1.194,
      "origin_country": [
        "RU"
      ],
      "vote_count": 3,
      "first_air_date": "2002-12-07",
      "backdrop_path": null,
      "original_language": "ru",
      "id": 80512,
      "vote_average": 10,
      "overview": "",
      "poster_path": "/fzptp7kZOLKJkYommJyvfG4WHJe.jpg"
    },
    {
      "original_name": "Чёрный ворон",
      "genre_ids": [
        80,
        18,
        9648,
        10759
      ],
      "name": "Чёрный ворон",
      "popularity": 0.931,
      "origin_country": [
        "RU"
      ],
      "vote_count": 3,
      "first_air_date": "2001-12-22",
      "backdrop_path": null,
      "original_language": "ru",
      "id": 80478,
      "vote_average": 10,
      "overview": "",
      "poster_path": "/j8tscHn4WjAFNm1SQ1eWFpa1Vv3.jpg"
    },
    {
      "original_name": "Deadly Class",
      "genre_ids": [
        80,
        18,
        10759
      ],
      "name": "Deadly Class",
      "popularity": 48.5,
      "origin_country": [
        "US"
      ],
      "vote_count": 4,
      "first_air_date": "2019-01-19",
      "backdrop_path": "/jrqsXHWwOYHCWV61EAHj6J2KkLp.jpg",
      "original_language": "en",
      "id": 75663,
      "vote_average": 10,
      "overview": "L'histoire de Marcus Lopez, un jeune adolescent SDF soudain admis au sein d'une école privée qui accueille les enfants des criminels les plus dangereux.",
      "poster_path": "/1cC4Ku7hlAg07X6pLGMMADvY0K3.jpg"
    },
    {
      "original_name": "Velvet Colección",
      "id": 74024,
      "name": "Velvet Colección",
      "popularity": 4.857,
      "vote_count": 3,
      "vote_average": 10,
      "first_air_date": "2017-09-20",
      "poster_path": "/dYrLZbWKKSUECCQ5CCvpEm6HZma.jpg",
      "genre_ids": [
        35,
        18
      ],
      "original_language": "es",
      "backdrop_path": "/v5su7A73h6w7q8pNIZhHMrXIDHx.jpg",
      "overview": "",
      "origin_country": [
        "ES"
      ]
    },
    {
      "original_name": "Cachitos de hierro y cromo",
      "id": 71635,
      "name": "Cachitos de hierro y cromo",
      "popularity": 1.176,
      "vote_count": 3,
      "vote_average": 10,
      "first_air_date": "2013-10-27",
      "poster_path": "/xBmD2HtaXu3JfTCxrGQq3VjenaK.jpg",
      "genre_ids": [
        99
      ],
      "original_language": "es",
      "backdrop_path": "/6Rj6bXneMWMtek7EjbPHew9gUQL.jpg",
      "overview": "",
      "origin_country": [
        "ES"
      ]
    },
    {
      "original_name": "El Príncipe",
      "genre_ids": [
        80,
        18
      ],
      "name": "El Príncipe",
      "popularity": 3.778,
      "origin_country": [
        "ES"
      ],
      "vote_count": 3,
      "first_air_date": "2014-02-04",
      "backdrop_path": "/g4rSKSm1tBwiHhB28U5PuCCsgEJ.jpg",
      "original_language": "es",
      "id": 60621,
      "vote_average": 10,
      "overview": "",
      "poster_path": "/gCjw8V7rVY0w03uNDZEf3gF91X7.jpg"
    },
    {
      "original_name": "As Cariocas",
      "genre_ids": [
        35
      ],
      "name": "As Cariocas",
      "popularity": 1.849,
      "origin_country": [
        "BR"
      ],
      "vote_count": 4,
      "first_air_date": "2010-10-19",
      "backdrop_path": "/TwRDQQdK5VQLqbZqSWcJ6kV4dX.jpg",
      "original_language": "pt",
      "id": 38791,
      "vote_average": 8.8,
      "overview": "",
      "poster_path": "/2FmEwPnHem36NMjStFTmMfilJI7.jpg"
    },
    {
      "original_name": "小公女セーラ",
      "genre_ids": [
        16,
        18
      ],
      "name": "Princesse Sarah",
      "popularity": 3.601,
      "origin_country": [
        "JP"
      ],
      "vote_count": 3,
      "first_air_date": "1985-01-06",
      "backdrop_path": "/rMQNRYWV8h1hYGN7ekosF8vgtf3.jpg",
      "original_language": "ja",
      "id": 35579,
      "vote_average": 10,
      "overview": "La jeune Sarah est envoyée en Angleterre par son père, qui a fait sa fortune dans les mines d'Inde, et ceci afin d'intégrer un pensionnat. Une fois arrivée, elle impressionne tout le monde par la richesse de ses habits et le raffinement de son allure. Elle s'attire aussi des jalousies, mais rien ne semble vouloir troubler la nouvelle vie de Sarah au sein du pensionnat. Tout va brutalement changer. Le jour de son anniversaire, elle apprend la mort de son père en Inde. Sarah est orpheline et ruinée. Dans un élan de bonté assez rare, Mademoiselle Mangin, la directrice de l'établissement, refuse de mettre Sarah à la rue et fait d'elle une bonne pour l'internat. Débute alors pour la jeune fille une nouvelle vie. Fini le luxe, elle doit désormais travailler et, pire, supporter les brimades et les moqueries de ses ex-camarades. Mais Sarah garde au fond d'elle une petite lumière, vaillante...",
      "poster_path": "/bUxXoiiJD7tAderV5fctnVjecph.jpg"
    },
    {
      "original_name": "Studio Julmahuvi",
      "genre_ids": [
        35
      ],
      "name": "Studio Julmahuvi",
      "popularity": 0.681,
      "origin_country": [
        "FI"
      ],
      "vote_count": 3,
      "first_air_date": "1998-10-30",
      "backdrop_path": "/ipXtAHy5FKrVSYGiOKjA3jHKNY7.jpg",
      "original_language": "fi",
      "id": 34763,
      "vote_average": 10,
      "overview": "",
      "poster_path": "/dP175n9zCCbT1mwYrOa9fbaEIwC.jpg"
    },
    {
      "original_name": "PEACE MAKER鐵",
      "id": 21788,
      "name": "Peace Maker Kurogane",
      "popularity": 1.865,
      "vote_count": 3,
      "vote_average": 10,
      "first_air_date": "2003-10-07",
      "poster_path": "/qsAuUMTk22LUUg1yRoNurrlXqa9.jpg",
      "genre_ids": [
        16,
        10759
      ],
      "original_language": "ja",
      "backdrop_path": "/dvQ4bAJFUQ6c0UtgD9LB14yZwFd.jpg",
      "overview": "C'est l'histoire d'un garçon (de 15 ans qui ne fait pas du tout son âge), nommé Ichimura Testunosuke, qui décide de devenir plus fort afin de venger ses parents. Ces derniers ont été assassinés par les extrémistes chôchûs (clan très puissant favorable à l'empereur). Il essaie alors de se faire enrôler au sein du Shinsen Gumi (puissant groupe de guerriers surnommés \"les Loups de Mibu\"). L'apprentissage d'Ichi sera long et parsémé de complications puisqu'il entrera au Shinsen Gumi comme domestique.",
      "origin_country": [
        "JP"
      ]
    },
    {
      "original_name": "The Mind of the Married Man",
      "genre_ids": [
        35,
        18
      ],
      "name": "The Mind of the Married Man",
      "popularity": 1.96,
      "origin_country": [
        "US"
      ],
      "vote_count": 4,
      "first_air_date": "2001-09-23",
      "backdrop_path": "/8HYxc4uThF2NblkVGcMqwZHcvy0.jpg",
      "original_language": "en",
      "id": 10968,
      "vote_average": 8.8,
      "overview": "",
      "poster_path": null
    }
  ]
}