{
  "page": 1,
  "total_results": 398612,
  "total_pages": 19931,
  "results": [
    {
      "vote_count": 20528,
      "id": 27205,
      "video": false,
      "vote_average": 8.3,
      "title": "Inception",
      "popularity": 39.796,
      "poster_path": "/n9dwu1p5G4qJ4DI5eHJMUbAdOfA.jpg",
      "original_language": "en",
      "original_title": "Inception",
      "genre_ids": [
        28,
        53,
        878,
        9648,
        12
      ],
      "backdrop_path": "/s2bT29y0ngXxxu2IA8AOzzXTRhd.jpg",
      "adult": false,
      "overview": "Dom Cobb est un voleur expérimenté, le meilleur dans l'art dangereux de l'extraction, voler les secrets les plus intimes enfouis au plus profond du subconscient durant une phase de rêve, lorsque l'esprit est le plus vulnérable. Les capacités de Cobb ont fait des envieux dans le monde tourmenté de l'espionnage industriel alors qu'il devient fugitif en perdant tout ce qu'il a un jour aimé. Une chance de se racheter lui est alors offerte. Une ultime mission grâce à laquelle il pourrait retrouver sa vie passée mais uniquement s'il parvient à accomplir l'impossible inception.",
      "release_date": "2010-07-15"
    },
    {
      "vote_count": 18613,
      "id": 293660,
      "video": false,
      "vote_average": 7.5,
      "title": "Deadpool",
      "popularity": 39.468,
      "poster_path": "/eJyRzC5uFjQryu8Hm61yqtrzj4S.jpg",
      "original_language": "en",
      "original_title": "Deadpool",
      "genre_ids": [
        28,
        12,
        35
      ],
      "backdrop_path": "/n1y094tVDFATSzkTnFxoGZ1qNsG.jpg",
      "adult": false,
      "overview": "Deadpool, est l'anti-héros le plus atypique de l'univers Marvel. À l'origine, il s'appelle Wade Wilson : un ancien militaire des Forces Spéciales devenu mercenaire. Après avoir subi une expérimentation hors norme qui va accélérer ses pouvoirs de guérison, il va devenir Deadpool. Armé de ses nouvelles capacités et d'un humour noir survolté, Deadpool va traquer l'homme qui a bien failli anéantir sa vie.",
      "release_date": "2016-02-09"
    },
    {
      "vote_count": 17698,
      "id": 24428,
      "video": false,
      "vote_average": 7.6,
      "title": "Avengers",
      "popularity": 59.997,
      "poster_path": "/s9UPgyelWtEqjS3HT3TUuHU9BHU.jpg",
      "original_language": "en",
      "original_title": "The Avengers",
      "genre_ids": [
        878,
        28,
        12
      ],
      "backdrop_path": "/hbn46fQaRmlpBuUrEiFqv0GDL6Y.jpg",
      "adult": false,
      "overview": "Lorsque la sécurité et l’équilibre de la planète sont menacés par un ennemi d’un genre nouveau, Nick Fury, le directeur du SHIELD, l’agence internationale du maintien de la paix, réunit une équipe pour empêcher le monde de basculer dans le chaos. Partout sur Terre, le recrutement des nouveaux héros dont le monde a besoin commence…",
      "release_date": "2012-04-25"
    },
    {
      "vote_count": 17544,
      "id": 155,
      "video": false,
      "vote_average": 8.4,
      "title": "The Dark Knight : Le Chevalier noir",
      "popularity": 45.607,
      "poster_path": "/sr8tdzgBj29H8rItNP9e5h097A2.jpg",
      "original_language": "en",
      "original_title": "The Dark Knight",
      "genre_ids": [
        18,
        28,
        80,
        53
      ],
      "backdrop_path": "/hqkIcbrOHL86UncnHIsHVcVmzue.jpg",
      "adult": false,
      "overview": "Dans ce nouveau volet, Batman augmente les mises dans sa guerre contre le crime. Avec l'appui du lieutenant de police Jim Gordon et du procureur de Gotham, Harvey Dent, Batman vise à éradiquer le crime organisé qui pullule dans la ville. Leur association est très efficace mais elle sera bientôt bouleversée par le chaos déclenché par un criminel extraordinaire que les citoyens de Gotham connaissent sous le nom de Joker.",
      "release_date": "2008-07-16"
    },
    {
      "vote_count": 17411,
      "id": 19995,
      "video": false,
      "vote_average": 7.4,
      "title": "Avatar",
      "popularity": 41.744,
      "poster_path": "/upd6F9IIMbzSl5reXsyMk7xH4Ou.jpg",
      "original_language": "en",
      "original_title": "Avatar",
      "genre_ids": [
        28,
        12,
        14,
        878
      ],
      "backdrop_path": "/aHcth2AXzZSjhX7JYh7ie73YVNc.jpg",
      "adult": false,
      "overview": "Malgré sa paralysie, Jake Sully, un ancien marine immobilisé dans un fauteuil roulant, est resté un combattant au plus profond de son être. Il est recruté pour se rendre à des années-lumière de la Terre, sur Pandora, où de puissants groupes industriels exploitent un minerai rarissime destiné à résoudre la crise énergétique sur Terre. Parce que l'atmosphère de Pandora est toxique pour les humains, ceux-ci ont créé le Programme Avatar, qui permet à des \"pilotes\" humains de lier leur esprit à un avatar, un corps biologique commandé à distance, capable de survivre dans cette atmosphère létale. Ces avatars sont des hybrides créés génétiquement en croisant l'ADN humain avec celui des Na'vi, les autochtones de Pandora.",
      "release_date": "2009-12-10"
    },
    {
      "vote_count": 16992,
      "id": 157336,
      "video": false,
      "vote_average": 8.2,
      "title": "Interstellar",
      "popularity": 49.065,
      "poster_path": "/1pnigkWWy8W032o9TKDneBa3eVK.jpg",
      "original_language": "en",
      "original_title": "Interstellar",
      "genre_ids": [
        12,
        18,
        878
      ],
      "backdrop_path": "/xu9zaAevzQ5nnrsXN6JcahLnG4i.jpg",
      "adult": false,
      "overview": "Dans un futur proche, face à une Terre exsangue, un groupe d'explorateurs utilise un vaisseau interstellaire pour franchir un trou de ver permettant de parcourir des distances jusque-là infranchissables. Leur but :  trouver un nouveau foyer pour l'humanité.",
      "release_date": "2014-11-05"
    },
    {
      "vote_count": 16238,
      "id": 118340,
      "video": false,
      "vote_average": 7.9,
      "title": "Les Gardiens de la Galaxie",
      "popularity": 59.206,
      "poster_path": "/dNjU7iyH8X5FmTYNYiC9DwqlsiS.jpg",
      "original_language": "en",
      "original_title": "Guardians of the Galaxy",
      "genre_ids": [
        28,
        878,
        12
      ],
      "backdrop_path": "/bHarw8xrmQeqf3t8HpuMY7zoK4x.jpg",
      "adult": false,
      "overview": "Peter Quill est un aventurier traqué par tous les chasseurs de primes pour avoir volé un mystérieux globe convoité par le puissant Ronan, dont les agissements menacent l’univers tout entier. Lorsqu’il découvre le véritable pouvoir de ce globe et la menace qui pèse sur la galaxie, il conclut une alliance fragile avec quatre aliens disparates : Rocket, un raton laveur fin tireur, Groot, un humanoïde semblable à un arbre, l’énigmatique et mortelle Gamora, et Drax le Destructeur, qui ne rêve que de vengeance. En les ralliant à sa cause, il les convainc de livrer un ultime combat aussi désespéré soit-il pour sauver ce qui peut encore l’être…",
      "release_date": "2014-07-30"
    },
    {
      "vote_count": 14994,
      "id": 550,
      "video": false,
      "vote_average": 8.4,
      "title": "Fight Club",
      "popularity": 29.239,
      "poster_path": "/zu1BxIKlhTXXIATPINnzg2rwy97.jpg",
      "original_language": "en",
      "original_title": "Fight Club",
      "genre_ids": [
        18
      ],
      "backdrop_path": "/87hTDiay2N2qWyX4Ds7ybXi9h8I.jpg",
      "adult": false,
      "overview": "Le narrateur, sans identité précise, vit seul, travaille seul, dort seul, mange seul ses plateaux-repas pour une personne comme beaucoup d’autres personnes seules qui connaissent la misère humaine, morale et sexuelle. C’est pourquoi il va devenir membre du Fight club, un lieu clandestin où il va pouvoir retrouver sa virilité, l’échange et la communication. Ce club est dirigé par Tyler Durden, une sorte d’anarchiste entre gourou et philosophe qui prêche l’amour de son prochain.",
      "release_date": "1999-10-15"
    },
    {
      "vote_count": 14511,
      "id": 68718,
      "video": false,
      "vote_average": 8,
      "title": "Django Unchained",
      "popularity": 27.39,
      "poster_path": "/iWXGPkf8TwRuXecfDs0j3dDBNLA.jpg",
      "original_language": "en",
      "original_title": "Django Unchained",
      "genre_ids": [
        18,
        37
      ],
      "backdrop_path": "/qUcmEqnzIwlwZxSyTf3WliSfAjJ.jpg",
      "adult": false,
      "overview": "Dans le sud des États-Unis, deux ans avant la guerre de Sécession, le Dr King Schultz, un chasseur de primes allemand, fait l’acquisition de Django, un esclave qui peut l’aider à traquer les frères Brittle, les meurtriers qu’il recherche. Schultz promet à Django de lui rendre sa liberté lorsqu’il aura capturé les Brittle – morts ou vifs.  Alors que les deux hommes pistent les dangereux criminels, Django n’oublie pas que son seul but est de retrouver Broomhilda, sa femme, dont il fut séparé à cause du commerce des esclaves…  Lorsque Django et Schultz arrivent dans l’immense plantation du puissant Calvin Candie, ils éveillent les soupçons de Stephen, un esclave qui sert Candie et a toute sa confiance. Le moindre de leurs mouvements est désormais épié par une dangereuse organisation de plus en plus proche… Si Django et Schultz veulent espérer s’enfuir avec Broomhilda, ils vont devoir choisir entre l’indépendance et la solidarité, entre le sacrifice et la survie…",
      "release_date": "2012-12-25"
    },
    {
      "vote_count": 13972,
      "id": 1726,
      "video": false,
      "vote_average": 7.5,
      "title": "Iron Man",
      "popularity": 44.39,
      "poster_path": "/3kK7V4NLP5ThUQgmy6Tr1YdX9lE.jpg",
      "original_language": "en",
      "original_title": "Iron Man",
      "genre_ids": [
        28,
        878,
        12
      ],
      "backdrop_path": "/ZQixhAZx6fH1VNafFXsqa1B8QI.jpg",
      "adult": false,
      "overview": "Tony Stark, inventeur de génie, vendeur d'armes et playboy milliardaire, est kidnappé. Forcé par ses ravisseurs de fabriquer une arme redoutable, il construit en secret une armure high-tech révolutionnaire qu'il utilise pour s'échapper. Comprenant la puissance de cette armure, il décide de l'améliorer et de l'utiliser pour faire régner la justice et protéger les innocents.",
      "release_date": "2008-04-30"
    },
    {
      "vote_count": 13848,
      "id": 680,
      "video": false,
      "vote_average": 8.4,
      "title": "Pulp Fiction",
      "popularity": 37.816,
      "poster_path": "/7p8x4U3o3p1JZMBqNY3zAlobY3m.jpg",
      "original_language": "en",
      "original_title": "Pulp Fiction",
      "genre_ids": [
        53,
        80
      ],
      "backdrop_path": "/4cDFJr4HnXN5AdPw4AKrmLlMWdO.jpg",
      "adult": false,
      "overview": "L'odyssée sanglante et burlesque de petits malfrats dans la jungle d'Hollywood : deux petits tueurs, un dangereux gangster marié à une camée, un boxeur roublard, des prêteurs sur gages sadiques, un caïd élégant et dévoué, un dealer bon mari et de deux tourtereaux à la gâchette facile.",
      "release_date": "1994-09-10"
    },
    {
      "vote_count": 13632,
      "id": 70160,
      "video": false,
      "vote_average": 7.1,
      "title": "Hunger Games",
      "popularity": 20.849,
      "poster_path": "/nNpb7F5V7YdGMjp8mPCyVZhiUmv.jpg",
      "original_language": "en",
      "original_title": "The Hunger Games",
      "genre_ids": [
        878,
        12,
        14
      ],
      "backdrop_path": "/1LTLrl06uII4w2BTpnQnmWwrKi.jpg",
      "adult": false,
      "overview": "Dans un proche futur, les États-Unis sont devenus un gouvernement fédéral dystopique dans lequel chacun des 12 districts doit envoyer un garçon et une fille combattre lors d'un événement annuel télévisé, \"Les Hunger Games\". La seule issue à ces jeux pour les \"Tributs\" est de tuer ou d'être tué. Lorsque la petite sœur de Katniss est tirée au sort pour y participer, celle-ci décide de prendre sa place.",
      "release_date": "2012-03-12"
    },
    {
      "vote_count": 13497,
      "id": 76341,
      "video": false,
      "vote_average": 7.4,
      "title": "Mad Max : Fury Road",
      "popularity": 40.584,
      "poster_path": "/oLy2V6AWSEfdPgKOtrSGnwB3Q2R.jpg",
      "original_language": "en",
      "original_title": "Mad Max: Fury Road",
      "genre_ids": [
        28,
        12,
        878,
        53
      ],
      "backdrop_path": "/phszHPFVhPHhMZgo0fWTKBDQsJA.jpg",
      "adult": false,
      "overview": "Hanté par un lourd passé, Mad Max estime que le meilleur moyen de survivre est de rester seul. Cependant, il se retrouve embarqué par une bande qui parcourt le désert à bord d'un véhicule militaire piloté par l'Impératrice Furiosa. Ils fuient la Citadelle où sévit le terrible Immortan Joe qui s'est fait voler un objet irremplaçable. Enragé, ce Seigneur de guerre envoie ses hommes pour traquer les rebelles impitoyablement...",
      "release_date": "2015-05-13"
    },
    {
      "vote_count": 13377,
      "id": 13,
      "video": false,
      "vote_average": 8.4,
      "title": "Forrest Gump",
      "popularity": 36.911,
      "poster_path": "/4D8CoCW07df1Ryb2qFyY7lxBRGK.jpg",
      "original_language": "en",
      "original_title": "Forrest Gump",
      "genre_ids": [
        35,
        18,
        10749
      ],
      "backdrop_path": "/wMgbnUVS9wbRGAdki8fqxKU1O0N.jpg",
      "adult": false,
      "overview": "Forrest Gump est le symbole d'une époque, un candide dans une Amérique qui a perdu son innocence. Merveilleusement interprété par Tom Hanks, Forrest vit une série d'aventures, de l'état d'handicapé physique à celui de star du football, de héros du Vietnam au roi de la crevette, des honneurs de la Maison Blanche au bonheur d'une grande histoire d'amour. Son cœur dépasse les limites de son Q.I.",
      "release_date": "1994-07-06"
    },
    {
      "vote_count": 13334,
      "id": 120,
      "video": false,
      "vote_average": 8.3,
      "title": "Le Seigneur des anneaux : La Communauté de l'anneau",
      "popularity": 60.322,
      "poster_path": "/1rF04Kk1eunZHk9OHPFwv8hllRF.jpg",
      "original_language": "en",
      "original_title": "The Lord of the Rings: The Fellowship of the Ring",
      "genre_ids": [
        12,
        14,
        28
      ],
      "backdrop_path": "/pIUvQ9Ed35wlWhY2oU6OmwEsmzG.jpg",
      "adult": false,
      "overview": "Le jeune et timide Hobbit, Frodon Sacquet, hérite d'un anneau. Bien loin d'être une simple babiole, il s'agit de l'Anneau Unique, un instrument de pouvoir absolu qui permettrait à Sauron, le Seigneur des ténèbres, de régner sur la Terre du Milieu et de réduire en esclavage ses peuples. À moins que Frodon, aidé d'une Compagnie constituée de Hobbits, d'Hommes, d'un Magicien, d'un Nain, et d'un Elfe, ne parvienne à emporter l'Anneau à travers la Terre du Milieu jusqu'à la Crevasse du Destin, lieu où il a été forgé, et à le détruire pour toujours. Un tel périple signifie s'aventurer très loin en Mordor, les terres du Seigneur des ténèbres, où est rassemblée son armée d'Orques maléfiques... La Compagnie doit non seulement combattre les forces extérieures du mal mais aussi les dissensions internes et l'influence corruptrice qu'exerce l'Anneau lui-même.",
      "release_date": "2001-12-18"
    },
    {
      "vote_count": 13258,
      "id": 603,
      "video": false,
      "vote_average": 8.1,
      "title": "Matrix",
      "popularity": 40.458,
      "poster_path": "/LCcZvB2Ynxg7JOQgviGwZ3l66L.jpg",
      "original_language": "en",
      "original_title": "The Matrix",
      "genre_ids": [
        28,
        878
      ],
      "backdrop_path": "/icmmSD4vTTDKOq2vvdulafOGw93.jpg",
      "adult": false,
      "overview": "Programmeur anonyme dans un service administratif le jour, Thomas Anderson devient Neo la nuit venue. Sous ce pseudonyme, il est l'un des pirates les plus recherchés du cyber-espace. À cheval entre deux mondes, Neo est assailli par d'étranges songes et des messages cryptés provenant d'un certain Morpheus. Celui-ci l'exhorte à aller au-delà des apparences et à trouver la réponse à la question qui hante constamment ses pensées : qu'est-ce que la Matrice ? Nul ne le sait, et aucun homme n'est encore parvenu à en percer les défenses. Mais Morpheus est persuadé que Neo est l’Élu, le libérateur mythique de l'humanité annoncé selon la prophétie. Ensemble, ils se lancent dans une lutte sans retour contre la Matrice et ses terribles agents...",
      "release_date": "1999-03-30"
    },
    {
      "vote_count": 13204,
      "id": 135397,
      "video": false,
      "vote_average": 6.6,
      "title": "Jurassic World",
      "popularity": 39.105,
      "poster_path": "/aTxRptK9fG3a0Tmcym3h4LXFOlm.jpg",
      "original_language": "en",
      "original_title": "Jurassic World",
      "genre_ids": [
        28,
        12,
        878,
        53
      ],
      "backdrop_path": "/t5KONotASgVKq4N19RyhIthWOPG.jpg",
      "adult": false,
      "overview": "Après le décès de son fondateur John Hammond, la société de biotechnologie InGen a été rachetée par Simon Masrani, PDG de la Masrani Global Corporation. Deux décennies après les événements tragiques de 1993, un nouveau parc a ouvert ses portes sur Isla Nublar, au large du Costa Rica. C'est plus de vingt mille visiteurs qui débarquent chaque jour à « Jurassic World », le « plus grand parc à thèmes jamais construit dans l'histoire humaine » pour profiter pleinement du cadre idyllique de l'île et de ses attractions. Les scientifiques de la réserve biologique, sous la direction du Dr Henry Wu, étudient le comportement des animaux, des dinosaures vivants recréés à partir de leur ADN fossilisé dans de lʼambre. Mais alors que tout le monde croyait les leçons du passé assimilées, un nouvel incident éclate…",
      "release_date": "2015-06-06"
    },
    {
      "vote_count": 12973,
      "id": 49026,
      "video": false,
      "vote_average": 7.7,
      "title": "The Dark Knight Rises",
      "popularity": 32.916,
      "poster_path": "/1e5V4EBrhuO83JyxQZxOz83xX2Q.jpg",
      "original_language": "en",
      "original_title": "The Dark Knight Rises",
      "genre_ids": [
        28,
        80,
        18,
        53
      ],
      "backdrop_path": "/f6ljQGv7WnJuwBPty017oPWfqjx.jpg",
      "adult": false,
      "overview": "Afin que l'image de l'ex-procureur Harvey Dent reste un modèle du genre pour les citoyens de Gotham City, Batman a endossé les crimes de ce dernier et a été chassé de la ville par les autorités.  Huit ans plus tard, alors que Gotham City est de nouveau sûre, le commissaire Gordon tombe sur un complot qui vise à détruire la ville de l'intérieur.  Il fait appel à Batman. Ce dernier devra faire face à la mystérieuse Selina Kyle et à Bane, un adversaire mortel, qui veut mettre en pièce le symbole Batman.",
      "release_date": "2012-07-16"
    },
    {
      "vote_count": 12929,
      "id": 597,
      "video": false,
      "vote_average": 7.8,
      "title": "Titanic",
      "popularity": 32.098,
      "poster_path": "/vpsvHLkoeKUjceIMeNSqCp3xEyY.jpg",
      "original_language": "en",
      "original_title": "Titanic",
      "genre_ids": [
        18,
        10749,
        53
      ],
      "backdrop_path": "/vFUI5obFtx4IdhP6k8Om5ezHTrk.jpg",
      "adult": false,
      "overview": "Southampton, 10 avril 1912. Le paquebot le plus grand et le plus moderne du monde, réputé pour son insubmersibilité, le « Titanic », appareille pour son premier voyage. 4 jours plus tard, il heurte un iceberg. À son bord, un artiste pauvre et une grande bourgeoise tombent amoureux.",
      "release_date": "1997-11-18"
    },
    {
      "vote_count": 12874,
      "id": 68721,
      "video": false,
      "vote_average": 6.9,
      "title": "Iron Man 3",
      "popularity": 34.852,
      "poster_path": "/krq7Y8mZq9QeRPU5bEtQczWA7dI.jpg",
      "original_language": "en",
      "original_title": "Iron Man 3",
      "genre_ids": [
        28,
        12,
        878
      ],
      "backdrop_path": "/n9X2DKItL3V0yq1q1jrk8z5UAki.jpg",
      "adult": false,
      "overview": "Tony Stark, l’industriel flamboyant qui est aussi Iron Man, est confronté cette fois à un ennemi qui va attaquer sur tous les fronts. Lorsque son univers personnel est détruit, Stark se lance dans une quête acharnée pour retrouver les coupables. Plus que jamais, son courage va être mis à l’épreuve, à chaque instant. Dos au mur, il ne peut plus compter que sur ses inventions, son ingéniosité, et son instinct pour protéger ses proches. Alors qu’il se jette dans la bataille, Stark va enfin découvrir la réponse à la question qui le hante secrètement depuis si longtemps : est-ce l’homme qui fait le costume ou bien le costume qui fait l’homme ?",
      "release_date": "2013-04-18"
    }
  ]
}