{
  "page": 1,
  "total_results": 19835,
  "total_pages": 992,
  "results": [
    {
      "vote_count": 162,
      "id": 503314,
      "video": false,
      "vote_average": 7.4,
      "title": "Dragon Ball Super : Broly",
      "popularity": 357.708,
      "poster_path": "/518jdIQHCZmYqIcNCaqbZuDRheV.jpg",
      "original_language": "ja",
      "original_title": "ドラゴンボール超スーパー ブロリー",
      "genre_ids": [
        28,
        16,
        878
      ],
      "backdrop_path": "/6OTRuxpwUUGbmCX3MKP25dOmo59.jpg",
      "adult": false,
      "overview": "Se situe après la fin du Tournoi de Pouvoir, où le destin des univers est en jeu, et le court répit qui le suit. Gokû et Vegeta font face au Saiyen légendaire Broly.",
      "release_date": "2018-12-14"
    },
    {
      "vote_count": 2567,
      "id": 297802,
      "video": false,
      "vote_average": 6.9,
      "title": "Aquaman",
      "popularity": 278.667,
      "poster_path": "/mODmCg1OpvGbDKHq15Mlf9sfaAY.jpg",
      "original_language": "en",
      "original_title": "Aquaman",
      "genre_ids": [
        28,
        14,
        878,
        12
      ],
      "backdrop_path": "/5A2bMlLfJrAfX9bqAibOL2gCruF.jpg",
      "adult": false,
      "overview": "Personnage légendaire depuis 70 ans, Aquaman est le Roi des Sept Mers, régnant à contrecœur sur Atlantis. Pris en étau entre les Terriens qui détruisent constamment la mer et les habitants d'Atlantis prêts à se révolter, Aquaman doit protéger la planète tout entière…",
      "release_date": "2018-12-07"
    },
    {
      "vote_count": 764,
      "id": 424783,
      "video": false,
      "vote_average": 6.6,
      "title": "Bumblebee",
      "popularity": 255.962,
      "poster_path": "/jAWcwnGUhDn9SGSjhDFAbWmh9A7.jpg",
      "original_language": "en",
      "original_title": "Bumblebee",
      "genre_ids": [
        28,
        12,
        878
      ],
      "backdrop_path": "/8bZ7guF94ZyCzi7MLHzXz6E5Lv8.jpg",
      "adult": false,
      "overview": "1987 - Alors qu'il est en fuite, l'Autobot Bumblebee trouve refuge dans la décharge d'une petite ville balnéaire de Californie. Il est découvert, brisé et couvert de blessures de guerre, par Charlie, une ado qui approche de ses 18 ans et cherche sa place dans le monde. Et quand elle le met en marche, elle se rend vite compte qu'il ne s'agit pas d'une voiture jaune ordinaire.",
      "release_date": "2018-12-15"
    },
    {
      "vote_count": 52,
      "id": 567604,
      "video": false,
      "vote_average": 7.5,
      "title": "Once Upon a Deadpool",
      "popularity": 232.983,
      "poster_path": "/5Ka49BWWyKMXr93YMbH5wLN7aAM.jpg",
      "original_language": "en",
      "original_title": "Once Upon a Deadpool",
      "genre_ids": [
        35,
        28
      ],
      "backdrop_path": "/c6sk2bW0JCDXqi5crU9baPAIxDI.jpg",
      "adult": false,
      "overview": "Remodelage du film Deadpool 2 avec la classification PG-13 (accompagnement fortement recommandé – certaines images peuvent ne pas convenir à des enfants de moins de 13 ans) c'est-à-dire une réduction des séquences violentes et grossières. De plus, huit scènes ont été filmées pour une séquence bonus.",
      "release_date": "2018-12-11"
    },
    {
      "vote_count": 3603,
      "id": 424694,
      "video": false,
      "vote_average": 8.2,
      "title": "Bohemian Rhapsody",
      "popularity": 193.846,
      "poster_path": "/zpf6mrGZ0BbdsfzwUP0Nzp3hJEb.jpg",
      "original_language": "en",
      "original_title": "Bohemian Rhapsody",
      "genre_ids": [
        18,
        10402
      ],
      "backdrop_path": "/pbXgLEYh8rlG2Km5IGZPnhcnuSz.jpg",
      "adult": false,
      "overview": "Le parcours de Queen et son leader Freddie Mercury, de la formation du groupe à son apparition au concert Live Aid en 1985.",
      "release_date": "2018-10-24"
    },
    {
      "vote_count": 21,
      "id": 487672,
      "video": false,
      "vote_average": 7.3,
      "title": "Reign of the Supermen",
      "popularity": 193.697,
      "poster_path": "/jKqe91SItNh7NWs52yiu8xNOFsj.jpg",
      "original_language": "en",
      "original_title": "Reign of the Supermen",
      "genre_ids": [
        16,
        28,
        878
      ],
      "backdrop_path": "/cdCMUHWyXBOsbLL4dOEPdCEtwM4.jpg",
      "adult": false,
      "overview": "Après la mort de Superman, plusieurs nouvelles personnes se présentent comme des successeurs possibles.",
      "release_date": "2019-01-13"
    },
    {
      "vote_count": 4,
      "id": 390634,
      "video": false,
      "vote_average": 2.6,
      "title": "劇場版「Fate/stay night [Heaven's Feel] ⅠⅠ. lost butterfly」",
      "popularity": 179.049,
      "poster_path": "/t0jwlwFUrtkPJoq5JH9YrRVROXZ.jpg",
      "original_language": "ja",
      "original_title": "劇場版「Fate/stay night [Heaven's Feel] ⅠⅠ. lost butterfly」",
      "genre_ids": [
        16,
        28,
        14
      ],
      "backdrop_path": "/3haESpzscyP1pLl2BxQ9j5KK9cM.jpg",
      "adult": false,
      "overview": "",
      "release_date": "2019-01-12"
    },
    {
      "vote_count": 154,
      "id": 504172,
      "video": false,
      "vote_average": 6.2,
      "title": "La Mule",
      "popularity": 166.791,
      "poster_path": "/3gaGY24sAYxALxsH7Rb9a3PFhpf.jpg",
      "original_language": "en",
      "original_title": "The Mule",
      "genre_ids": [
        80,
        18,
        53
      ],
      "backdrop_path": "/bkc4AY6FTa3yNqrshE9b1elDzPt.jpg",
      "adult": false,
      "overview": "À plus de 80 ans, Earl Stone est aux abois. Il est non seulement fauché et seul, mais son entreprise risque d'être saisie. Il accepte alors un boulot qui – en apparence – ne lui demande que de faire le chauffeur. Sauf que, sans le savoir, il s'est engagé à être passeur de drogue pour un cartel mexicain.",
      "release_date": "2018-12-14"
    },
    {
      "vote_count": 2590,
      "id": 332562,
      "video": false,
      "vote_average": 7.5,
      "title": "A Star Is Born",
      "popularity": 153.17,
      "poster_path": "/uoq8DobPxciPEJ5EuBeqDt8av76.jpg",
      "original_language": "en",
      "original_title": "A Star Is Born",
      "genre_ids": [
        18,
        10402,
        10749
      ],
      "backdrop_path": "/wqtaHWOEZ3rXDJ8c6ZZShulbo18.jpg",
      "adult": false,
      "overview": "Star de country un peu oubliée, Jackson Maine découvre Ally, une jeune chanteuse très prometteuse. Tandis qu'ils tombent follement amoureux l'un de l'autre, Jack propulse Ally sur le devant de la scène et fait d'elle une artiste adulée par le public. Bientôt éclipsé par le succès de la jeune femme, il vit de plus en plus de mal son propre déclin…",
      "release_date": "2018-10-03"
    },
    {
      "vote_count": 1153,
      "id": 324857,
      "video": false,
      "vote_average": 8.5,
      "title": "Spider-Man : New Generation",
      "popularity": 151.529,
      "poster_path": "/zthEwOWBbqKitZzFRJnhU5GMXug.jpg",
      "original_language": "en",
      "original_title": "Spider-Man: Into the Spider-Verse",
      "genre_ids": [
        28,
        12,
        16,
        878,
        35
      ],
      "backdrop_path": "/shROD2YqREzo4TuonTsTVnnjpPC.jpg",
      "adult": false,
      "overview": "SPIDER-MAN : NEW GENERATION présente Miles Morales, un adolescent vivant à Brooklyn, et révèle les possibilités illimitées du Spider-Verse, un univers où plus d’un peut porter le masque…",
      "release_date": "2018-12-07"
    },
    {
      "vote_count": 620,
      "id": 400650,
      "video": false,
      "vote_average": 6.7,
      "title": "Le Retour de Mary Poppins",
      "popularity": 144.862,
      "poster_path": "/qprfpYJnIkJu5kTS7mCuWx38cLs.jpg",
      "original_language": "en",
      "original_title": "Mary Poppins Returns",
      "genre_ids": [
        14,
        10751,
        35
      ],
      "backdrop_path": "/cwiJQXezWz876K3jS57Sq56RYCZ.jpg",
      "adult": false,
      "overview": "Londres, années 1930, durant la grande dépression. Devenu adulte, Michael Banks travaille à la banque où son père était employé et vit toujours au 17, allée des Cerisiers avec ses trois enfants - Annabel, Georgie et John - et leur gouvernante Ellen. Comme sa mère avant elle, Jane Banks se bat pour les droits des ouvriers et apporte son aide à la famille de Michael. Lorsque cette dernière subit une perte tragique, Mary Poppins réapparaît magiquement dans leur vie. Avec l’aide de son ami Jack - l’allumeur de réverbères toujours optimiste -, elle va tout faire pour que la joie et l’émerveillement reviennent dans leur existence. Elle leur fera aussi découvrir de nouveaux personnages pleins de fantaisie, dont sa cousine, l’excentrique Topsy.",
      "release_date": "2018-12-19"
    },
    {
      "vote_count": 264,
      "id": 399402,
      "video": false,
      "vote_average": 5.8,
      "title": "Hunter Killer",
      "popularity": 140.714,
      "poster_path": "/ajFUOfOHOusnJU88XmM5KoA1ktJ.jpg",
      "original_language": "en",
      "original_title": "Hunter Killer",
      "genre_ids": [
        28,
        53
      ],
      "backdrop_path": "/hE6Jh9FJiBrakHcT3vmWxM0GVpv.jpg",
      "adult": false,
      "overview": "Dans les profondeurs de l’Océan Arctique, le capitaine de sous-marin américain Joe Glass est à la recherche d’un équipage en détresse lorsqu’il découvre un complot en vue d’un coup d’état russe, menaçant du même coup l’ordre mondial. Avec un équipage et tout un pays en danger, le Capitaine Glass doit maintenant faire appel à une équipe d’élite de Navy SEAL afin de secourir le Président Russe et naviguer en eaux ennemies pour éviter une Guerre Mondiale.",
      "release_date": "2018-10-19"
    },
    {
      "vote_count": 590,
      "id": 480530,
      "video": false,
      "vote_average": 6.5,
      "title": "Creed II",
      "popularity": 134.15,
      "poster_path": "/dMw3q9WAY468ab7HqIMjsooMmUa.jpg",
      "original_language": "en",
      "original_title": "Creed II",
      "genre_ids": [
        18,
        28
      ],
      "backdrop_path": "/8yqLPNwNCtpOPc3XkOlkSMnghzw.jpg",
      "adult": false,
      "overview": "La vie est devenue un numéro d'équilibriste pour Adonis Creed. Entre ses obligations personnelles et son entraînement pour son prochain grand match, il est à la croisée des chemins. Et l'enjeu du combat est d'autant plus élevé que son rival est lié au passé de sa famille. Mais il peut compter sur la présence de Rocky Balboa à ses côtés : avec lui, il comprendra ce qui vaut la peine de se battre et découvrira qu'il n'y a rien de plus important que les valeurs familiales.",
      "release_date": "2018-11-21"
    },
    {
      "vote_count": 10829,
      "id": 299536,
      "video": false,
      "vote_average": 8.3,
      "title": "Avengers : Infinity War",
      "popularity": 116.929,
      "poster_path": "/hSfuKPtyEryeFzapZ8UgZd4aESu.jpg",
      "original_language": "en",
      "original_title": "Avengers: Infinity War",
      "genre_ids": [
        12,
        28,
        14
      ],
      "backdrop_path": "/bOGkgRGdhrBYJSLpXaxhXVstddV.jpg",
      "adult": false,
      "overview": "Les Avengers et leurs alliés devront être prêts à tout sacrifier pour neutraliser le redoutable Thanos avant que son attaque éclair ne conduise à la destruction complète de l’univers.",
      "release_date": "2018-04-25"
    },
    {
      "vote_count": 40,
      "id": 426563,
      "video": false,
      "vote_average": 4.5,
      "title": "Holmes & Watson",
      "popularity": 113.83,
      "poster_path": "/gY4ziK7sjmNbsoBnTbhqC3SkGoE.jpg",
      "original_language": "en",
      "original_title": "Holmes & Watson",
      "genre_ids": [
        9648,
        12,
        35,
        80
      ],
      "backdrop_path": "/pikYQjSIHP96Zidprp9ngG8YmYJ.jpg",
      "adult": false,
      "overview": "Adaptation des célèbres aventures de Sherlock Holmes et de son acolyte Watson.",
      "release_date": "2018-12-25"
    },
    {
      "vote_count": 4323,
      "id": 335983,
      "video": false,
      "vote_average": 6.5,
      "title": "Venom",
      "popularity": 105.181,
      "poster_path": "/vVusHIRlyyFVS42XnqZso2wGKr.jpg",
      "original_language": "en",
      "original_title": "Venom",
      "genre_ids": [
        878
      ],
      "backdrop_path": "/VuukZLgaCrho2Ar8Scl9HtV3yD.jpg",
      "adult": false,
      "overview": "Des symbiotes débarquent sur la Terre, parmi eux, Venom, qui va s'allier avec Eddie Brock. De son côté, un puissant scientifique tente de faire évoluer l'humanité avec les symbiotes, le duo d'anti-héros va devoir tout faire pour l'arrêter !",
      "release_date": "2018-09-28"
    },
    {
      "vote_count": 71,
      "id": 450465,
      "video": false,
      "vote_average": 7.2,
      "title": "Glass",
      "popularity": 104.705,
      "poster_path": "/myNXpKmBmYKqBABQEGjSpcK6nIk.jpg",
      "original_language": "en",
      "original_title": "Glass",
      "genre_ids": [
        53,
        27,
        9648,
        18,
        878
      ],
      "backdrop_path": "/rL1ITQuX0lmSNPu52pRRHUyim5N.jpg",
      "adult": false,
      "overview": "Peu de temps après les événements relatés dans Split, David Dunn - l’homme incassable - poursuit sa traque de La Bête, surnom donné à Kevin Crumb depuis qu’on le sait capable d’endosser 23 personnalités différentes. De son côté, le mystérieux homme souffrant du syndrome des os de verre Elijah Price suscite à nouveau l’intérêt des forces de l’ordre en affirmant détenir des informations capitales sur les deux hommes…",
      "release_date": "2019-01-16"
    },
    {
      "vote_count": 24,
      "id": 166428,
      "video": false,
      "vote_average": 8.2,
      "title": "Dragons 3 : Le Monde caché",
      "popularity": 100.631,
      "poster_path": "/gp81Z8D4ffexlQdQA7AjSwOoJMd.jpg",
      "original_language": "en",
      "original_title": "How to Train Your Dragon: The Hidden World",
      "genre_ids": [
        16,
        10751,
        12
      ],
      "backdrop_path": "/h3KN24PrOheHVYs9ypuOIdFBEpX.jpg",
      "adult": false,
      "overview": "Ce qui avait commencé comme une amitié improbable entre un jeune Viking et un redoutable dragon Fury Nocturne est devenu une épique trilogie retraçant leurs vies. Dans ce nouveau chapitre, Harold et Krokmou vont enfin découvrir leurs véritables destinées : être le chef de Berk au côté d’Astrid et, en tant que dragon, être le leader de son espèce. Alors qu’ils réalisent leurs rêves de vivre en paix entre Vikings et dragons, une sombre menace planant sur le village et l’apparition d’une femelle Fury Nocturne vont mettre à mal leurs liens d’amitié comme jamais auparavant.",
      "release_date": "2019-01-03"
    },
    {
      "vote_count": 2934,
      "id": 405774,
      "video": false,
      "vote_average": 7.2,
      "title": "Bird Box",
      "popularity": 99.307,
      "poster_path": "/dQttGQbagXWlaq32YlQj9uDoUEp.jpg",
      "original_language": "en",
      "original_title": "Bird Box",
      "genre_ids": [
        53,
        18,
        878,
        27
      ],
      "backdrop_path": "/z6m7s4w4Erxnr5k2jc1TZR1AMva.jpg",
      "adult": false,
      "overview": "Depuis cinq ans, une présence invisible et menaçante pousse la population au suicide. Mais une femme et ses deux enfants font le pari insensé de lui échapper...",
      "release_date": "2018-12-13"
    },
    {
      "vote_count": 2950,
      "id": 338952,
      "video": false,
      "vote_average": 6.9,
      "title": "Les Animaux fantastiques : Les Crimes de Grindelwald",
      "popularity": 90.169,
      "poster_path": "/9kC0guEMrYAXWN1sgNtY6ki1Gb8.jpg",
      "original_language": "en",
      "original_title": "Fantastic Beasts: The Crimes of Grindelwald",
      "genre_ids": [
        10751,
        14,
        12
      ],
      "backdrop_path": "/wDN3FIcQQ1HI7mz1OOKYHSQtaiE.jpg",
      "adult": false,
      "overview": "1927 : Quelques mois après sa capture, le célèbre sorcier Gellert Grindelwald s'évade comme il l'avait promis et de façon spectaculaire. Réunissant de plus en plus de partisans, il est à l'origine d'attaque d'humains normaux par des sorciers et seul celui qu'il considérait autrefois comme un ami, Albus Dumbledore, semble capable de l'arrêter. Mais Dumbledore va devoir faire appel au seul sorcier ayant déjoué les plans de Grindelwald auparavant : son ancien élève Norbert Dragonneau. L'aventure qui les attend réunit Norbert avec Tina, Queenie et Jacob, mais cette mission va également tester la loyauté de chacun face aux nouveaux dangers qui se dressent sur leur chemin, dans un monde magique plus dangereux et divisé que jamais.",
      "release_date": "2018-11-14"
    }
  ]
}