{
  "page": 2,
  "total_results": 19856,
  "total_pages": 993,
  "results": [
    {
      "vote_count": 1356,
      "id": 369972,
      "video": false,
      "vote_average": 7.1,
      "title": "First Man",
      "popularity": 98.528,
      "poster_path": "/i91mfvFcPPlaegcbOyjGgiWfZzh.jpg",
      "original_language": "en",
      "original_title": "First Man",
      "genre_ids": [
        36,
        18
      ],
      "backdrop_path": "/z1FkoHO7bz40S4JiptWHSYoPpxq.jpg",
      "adult": false,
      "overview": "A look at the life of the astronaut, Neil Armstrong, and the legendary space mission that led him to become the first man to walk on the Moon on July 20, 1969.",
      "release_date": "2018-10-11"
    },
    {
      "vote_count": 52,
      "id": 503616,
      "video": false,
      "vote_average": 6.5,
      "title": "Second Act",
      "popularity": 96.55,
      "poster_path": "/maUMIZVGs8g1hYtq4dQ9Lg9FtVF.jpg",
      "original_language": "en",
      "original_title": "Second Act",
      "genre_ids": [
        10749,
        35
      ],
      "backdrop_path": "/gZ1n5lvEWLTQgmVbeKHyfIUrqgx.jpg",
      "adult": false,
      "overview": "Maya, a 40-year-old woman struggling with frustrations from unfulfilled dreams. Until that is, she gets the chance to prove to Madison Avenue that street smarts are as valuable as book smarts, and that it is never too late for a second act.",
      "release_date": "2018-11-22"
    },
    {
      "vote_count": 770,
      "id": 426426,
      "video": false,
      "vote_average": 8.1,
      "title": "Roma",
      "popularity": 94.337,
      "poster_path": "/dtIIyQyALk57ko5bjac7hi01YQ.jpg",
      "original_language": "es",
      "original_title": "Roma",
      "genre_ids": [
        18
      ],
      "backdrop_path": "/uXs8rTXZDaWUclprxZuxfaZqei5.jpg",
      "adult": false,
      "overview": "In 1970s Mexico City, two domestic workers help a mother of four while her husband is away for an extended period of time.",
      "release_date": "2018-08-25"
    },
    {
      "vote_count": 257,
      "id": 375262,
      "video": false,
      "vote_average": 7.6,
      "title": "The Favourite",
      "popularity": 88.169,
      "poster_path": "/4hgPWxYeGWtTEx9BPhUo99wj77z.jpg",
      "original_language": "en",
      "original_title": "The Favourite",
      "genre_ids": [
        18,
        36,
        35
      ],
      "backdrop_path": "/578XdFpbdZS0pRn5wZlXX1KsvAp.jpg",
      "adult": false,
      "overview": "In 18th century England, the close relationship between Queen Anne and Sarah Churchill is threatened by the arrival of Sarah's cousin, Abigail Hill, resulting in a bitter rivalry between the two cousins to be the Queen's favourite.",
      "release_date": "2018-11-20"
    },
    {
      "vote_count": 257,
      "id": 429197,
      "video": false,
      "vote_average": 7.2,
      "title": "Vice",
      "popularity": 86.582,
      "poster_path": "/e0NZxqQ4B8YZ6kRrZish2DPqtdi.jpg",
      "original_language": "en",
      "original_title": "Vice",
      "genre_ids": [
        18,
        36,
        35
      ],
      "backdrop_path": "/uvy89JLcYEiUb0VOoSjkUrIW3nJ.jpg",
      "adult": false,
      "overview": "George W. Bush picks Dick Cheney, the CEO of Halliburton Co., to be his Republican running mate in the 2000 presidential election. No stranger to politics, Cheney's impressive résumé includes stints as White House chief of staff, House Minority Whip and defense secretary. When Bush wins by a narrow margin, Cheney begins to use his newfound power to help reshape the country and the world.",
      "release_date": "2018-12-25"
    },
    {
      "vote_count": 473,
      "id": 426543,
      "video": false,
      "vote_average": 6,
      "title": "The Nutcracker and the Four Realms",
      "popularity": 84.285,
      "poster_path": "/3TwxpPfMoeFLxzhgAWlptE6srsZ.jpg",
      "original_language": "en",
      "original_title": "The Nutcracker and the Four Realms",
      "genre_ids": [
        14,
        12,
        10751
      ],
      "backdrop_path": "/l2ji4YiNSPBV69WjGBgU0gCvRqy.jpg",
      "adult": false,
      "overview": "A young girl is transported into a magical world of gingerbread soldiers and an army of mice.  In Disney’s magical take on the classic The Nutcracker, Clara wants a one-of-a-kind key that will unlock a box holding a priceless gift. A golden thread presented at her godfather’s holiday party leads her to the coveted key—which promptly disappears into a strange and mysterious parallel world. There Clara encounters a soldier, a gang of mice and the regents of three magical Realms. But she must brave the ominous Fourth Realm, home to the tyrant Mother Ginger, to retrieve her key and return harmony to the unstable world.",
      "release_date": "2018-10-26"
    },
    {
      "vote_count": 207,
      "id": 433249,
      "video": false,
      "vote_average": 5,
      "title": "IO",
      "popularity": 79.353,
      "poster_path": "/utH781EwjzzXQC6fZUO3cw8L5Ht.jpg",
      "original_language": "en",
      "original_title": "IO",
      "genre_ids": [
        878,
        18
      ],
      "backdrop_path": "/tirhxzSR6g1A9Iayo2lpYW4luUF.jpg",
      "adult": false,
      "overview": "As a young scientist searches for a way to save a dying Earth, she finds a connection with a man who's racing to catch the last shuttle off the planet.",
      "release_date": "2019-01-18"
    },
    {
      "vote_count": 3027,
      "id": 338952,
      "video": false,
      "vote_average": 6.9,
      "title": "Fantastic Beasts: The Crimes of Grindelwald",
      "popularity": 75.65,
      "poster_path": "/kQKcbJ9uYkTQql2R8L4jTUz7l90.jpg",
      "original_language": "en",
      "original_title": "Fantastic Beasts: The Crimes of Grindelwald",
      "genre_ids": [
        10751,
        14,
        12
      ],
      "backdrop_path": "/wDN3FIcQQ1HI7mz1OOKYHSQtaiE.jpg",
      "adult": false,
      "overview": "Gellert Grindelwald has escaped imprisonment and has begun gathering followers to his cause—elevating wizards above all non-magical beings. The only one capable of putting a stop to him is the wizard he once called his closest friend, Albus Dumbledore. However, Dumbledore will need to seek help from the wizard who had thwarted Grindelwald once before, his former student Newt Scamander, who agrees to help, unaware of the dangers that lie ahead. Lines are drawn as love and loyalty are tested, even among the truest friends and family, in an increasingly divided wizarding world.",
      "release_date": "2018-11-14"
    },
    {
      "vote_count": 917,
      "id": 404368,
      "video": false,
      "vote_average": 7.4,
      "title": "Ralph Breaks the Internet",
      "popularity": 73.073,
      "poster_path": "/lDroo0e4Pr33c1Y4LWr7f4IE8f2.jpg",
      "original_language": "en",
      "original_title": "Ralph Breaks the Internet",
      "genre_ids": [
        10751,
        16,
        35,
        14
      ],
      "backdrop_path": "/88poTBTafMXaz73vYi3c74g0y2k.jpg",
      "adult": false,
      "overview": "Six years after the events of \"Wreck-It Ralph,\" Ralph and Vanellope, now friends, discover a wi-fi router in their arcade, leading them into a new adventure.",
      "release_date": "2018-11-20"
    },
    {
      "vote_count": 45,
      "id": 426563,
      "video": false,
      "vote_average": 4.4,
      "title": "Holmes & Watson",
      "popularity": 72.069,
      "poster_path": "/gY4ziK7sjmNbsoBnTbhqC3SkGoE.jpg",
      "original_language": "en",
      "original_title": "Holmes & Watson",
      "genre_ids": [
        9648,
        12,
        35,
        80
      ],
      "backdrop_path": "/pikYQjSIHP96Zidprp9ngG8YmYJ.jpg",
      "adult": false,
      "overview": "Detective Sherlock Holmes and Dr. John Watson join forces to investigate a murder at Buckingham Palace. They soon learn that they have only four days to solve the case, or the queen will become the next victim.",
      "release_date": "2018-12-25"
    },
    {
      "vote_count": 9014,
      "id": 381288,
      "video": false,
      "vote_average": 7.2,
      "title": "Split",
      "popularity": 70.391,
      "poster_path": "/rXMWOZiCt6eMX22jWuTOSdQ98bY.jpg",
      "original_language": "en",
      "original_title": "Split",
      "genre_ids": [
        27,
        53
      ],
      "backdrop_path": "/4G6FNNLSIVrwSRZyFs91hQ3lZtD.jpg",
      "adult": false,
      "overview": "Though Kevin has evidenced 23 personalities to his trusted psychiatrist, Dr. Fletcher, there remains one still submerged who is set to materialize and dominate all the others. Compelled to abduct three teenage girls led by the willful, observant Casey, Kevin reaches a war for survival among all of those contained within him — as well as everyone around him — as the walls between his compartments shatter apart.",
      "release_date": "2017-01-19"
    },
    {
      "vote_count": 52,
      "id": 487672,
      "video": false,
      "vote_average": 6.9,
      "title": "Reign of the Supermen",
      "popularity": 68.981,
      "poster_path": "/jKqe91SItNh7NWs52yiu8xNOFsj.jpg",
      "original_language": "en",
      "original_title": "Reign of the Supermen",
      "genre_ids": [
        16,
        28,
        878
      ],
      "backdrop_path": "/cdCMUHWyXBOsbLL4dOEPdCEtwM4.jpg",
      "adult": false,
      "overview": "In the wake of The Death of Superman, the world is still mourning the loss of the Man of Steel following his fatal battle with the monster Doomsday. However, no sooner as his body been laid to rest than do four new bearers of the Superman shield come forward to take on the mantle. The Last Son of Krypton, Superboy, Steel, and the Cyborg Superman all attempt to fill the vacuum left by the world's greatest champion. Meanwhile, Superman's death has also signaled to the universe that Earth is vulnerable. Can these new Supermen and the rest of the heroes prove them wrong?",
      "release_date": "2019-01-13"
    },
    {
      "vote_count": 10172,
      "id": 284054,
      "video": false,
      "vote_average": 7.4,
      "title": "Black Panther",
      "popularity": 67.228,
      "poster_path": "/uxzzxijgPIY7slzFvMotPv8wjKA.jpg",
      "original_language": "en",
      "original_title": "Black Panther",
      "genre_ids": [
        28,
        12,
        14,
        878
      ],
      "backdrop_path": "/b6ZJZHUdMEFECvGiDpJjlfUWela.jpg",
      "adult": false,
      "overview": "King T'Challa returns home from America to the reclusive, technologically advanced African nation of Wakanda to serve as his country's new leader. However, T'Challa soon finds that he is challenged for the throne by factions within his own country as well as without. Using powers reserved to Wakandan kings, T'Challa assumes the Black Panther mantel to join with girlfriend Nakia, the queen-mother, his princess-kid sister, members of the Dora Milaje (the Wakandan 'special forces') and an American secret agent, to prevent Wakanda from being dragged into a world war.",
      "release_date": "2018-02-13"
    },
    {
      "vote_count": 1644,
      "id": 487558,
      "video": false,
      "vote_average": 7.5,
      "title": "BlacKkKlansman",
      "popularity": 67.043,
      "poster_path": "/55W6mUVv4CXMMQHHhV2zXtLSpXQ.jpg",
      "original_language": "en",
      "original_title": "BlacKkKlansman",
      "genre_ids": [
        80,
        18
      ],
      "backdrop_path": "/gMVdhfQ7q9DFHhDkehrququjGPd.jpg",
      "adult": false,
      "overview": "Colorado Springs, late 1970s. Ron Stallworth, an African American police officer, and Flip Zimmerman, his Jewish colleague, run an undercover operation to infiltrate the Ku Klux Klan.",
      "release_date": "2018-07-30"
    },
    {
      "vote_count": 619,
      "id": 360920,
      "video": false,
      "vote_average": 6.3,
      "title": "The Grinch",
      "popularity": 66.385,
      "poster_path": "/gcPwrS93ZNDIJd036url2UgsCWK.jpg",
      "original_language": "en",
      "original_title": "The Grinch",
      "genre_ids": [
        16,
        10751,
        35,
        14
      ],
      "backdrop_path": "/juc9wt7Eh2IarLL5S1yQ1a21O1A.jpg",
      "adult": false,
      "overview": "The Grinch hatches a scheme to ruin Christmas when the residents of Whoville plan their annual holiday celebration.",
      "release_date": "2018-11-08"
    },
    {
      "vote_count": 19,
      "id": 52371,
      "video": false,
      "vote_average": 4.4,
      "title": "LelleBelle",
      "popularity": 65.107,
      "poster_path": "/nJVPgIq3icZMQ26p5uWIFdUZJfL.jpg",
      "original_language": "nl",
      "original_title": "LelleBelle",
      "genre_ids": [
        10402,
        10749
      ],
      "backdrop_path": "/xOGEw8iywxcFMolV6SF6YdTdJTb.jpg",
      "adult": false,
      "overview": "19-year old Belle practices playing the violin diligently, but is unable to impart her music with a sensitive undertone. Her life changes when she discovers that sexual desire stimulates passion in her music.",
      "release_date": "2010-10-09"
    },
    {
      "vote_count": 579,
      "id": 454293,
      "video": false,
      "vote_average": 6,
      "title": "Night School",
      "popularity": 65.023,
      "poster_path": "/uQVIQDc3foTPodZw0ie1Or0CXBn.jpg",
      "original_language": "en",
      "original_title": "Night School",
      "genre_ids": [
        35
      ],
      "backdrop_path": "/jJBimY3DXIaIaL4NeGHfR0U0rSh.jpg",
      "adult": false,
      "overview": "Teddy Walker is a successful salesman whose life takes an unexpected turn when he accidentally blows up his place of employment. Forced to attend night school to get his GED, Teddy soon finds himself dealing with a group of misfit students, his former high school nemesis and a feisty teacher who doesn't think he's too bright.",
      "release_date": "2018-09-27"
    },
    {
      "vote_count": 42,
      "id": 505954,
      "video": false,
      "vote_average": 4.4,
      "title": "T-34",
      "popularity": 64.947,
      "poster_path": "/qNBjbjpQC2Rm8M1v0X8jQxb4AnN.jpg",
      "original_language": "ru",
      "original_title": "Т-34",
      "genre_ids": [
        10752,
        18,
        12
      ],
      "backdrop_path": "/vDx8XxfYjkn573bCFGF6SkdM33Q.jpg",
      "adult": false,
      "overview": "1941 - WWii. the second lieutenant Nikolai ivushkin, commander of a t-34, engages in an unequal battle against the tank ace Klaus Jager in a battle near moscow. His mission is more of a suicide - to destroy a dozen german tanks, all by himself. that said, luck does favour the bold. He wins the battle, barely survives, but loses his tank and lands himself in captivity for three long years... there was little to no chance for ivushkin and Jager to meet again, but the war knows how to throw a curve ball.in the spring of 1944, the Wehrmacht commands Jager to take charge of the ohrdruf  re range and turn it into a training center for elite german armored forces, using the latest t-34 as a running target. this is how Jager and ivushkin cross paths again. Jager o ers ivushkin to become the commander of a legendary tank and pick his crew from fellow camp prisoners. Nothing goes according to plan, though, when ivushkin uses exercises for a daring and carefully planned escape.",
      "release_date": "2018-12-27"
    },
    {
      "vote_count": 163,
      "id": 451915,
      "video": false,
      "vote_average": 7.4,
      "title": "Beautiful Boy",
      "popularity": 63.427,
      "poster_path": "/i7gsLrNxpSf8NF5IZIrcOEfMyA3.jpg",
      "original_language": "en",
      "original_title": "Beautiful Boy",
      "genre_ids": [
        18
      ],
      "backdrop_path": "/sOhtC4cmaYPOlcjXCWxxrx2NKKn.jpg",
      "adult": false,
      "overview": "After he and his first wife separate, journalist David Sheff struggles to help their teenage son, who goes from experimenting with drugs to becoming devastatingly addicted to methamphetamine.",
      "release_date": "2018-10-12"
    },
    {
      "vote_count": 4056,
      "id": 9741,
      "video": false,
      "vote_average": 7.1,
      "title": "Unbreakable",
      "popularity": 60.549,
      "poster_path": "/pvL37V88plePxFSszCbV3wRHiBm.jpg",
      "original_language": "en",
      "original_title": "Unbreakable",
      "genre_ids": [
        53,
        18,
        878
      ],
      "backdrop_path": "/hjPirVLui7vWD4AsOQPV9kjg7pg.jpg",
      "adult": false,
      "overview": "An ordinary man makes an extraordinary discovery when a train accident leaves his fellow passengers dead—and him unscathed. The answer to this mystery could lie with the mysterious Elijah Price, a man who suffers from a disease that renders his bones as fragile as glass.",
      "release_date": "2000-11-13"
    }
  ]
}
