{
  "page": 1,
  "total_results": 6768,
  "total_pages": 339,
  "results": [
    {
      "vote_count": 1963,
      "id": 19404,
      "video": false,
      "vote_average": 9.1,
      "title": "Dilwale Dulhania Le Jayenge",
      "popularity": 18.274,
      "poster_path": "/uC6TTUhPpQCmgldGyYveKRAu8JN.jpg",
      "original_language": "hi",
      "original_title": "दिलवाले दुल्हनिया ले जायेंगे",
      "genre_ids": [
        35,
        18,
        10749
      ],
      "backdrop_path": "/nl79FQ8xWZkhL3rDr1v2RFFR6J0.jpg",
      "adult": false,
      "overview": "Chaudhry Baldev Singh est un père de famille installé à Londres. Un jour, il reçoit une lettre d'Inde : son meilleur ami lui écrit, lui rappellant la promesse qu'il avait faite deux décennies auparavant de marier leurs enfants. Chaudhry décide alors de tenir sa promesse, mais donne toutefois un mois libre à sa fille tout avant qu'elle ne s'en aille en Inde se marier...",
      "release_date": "1995-10-20"
    },
    {
      "vote_count": 11978,
      "id": 278,
      "video": false,
      "vote_average": 8.6,
      "title": "Les Évadés",
      "popularity": 34.236,
      "poster_path": "/5cIUvCJQ2aNPXRCmXiOIuJJxIki.jpg",
      "original_language": "en",
      "original_title": "The Shawshank Redemption",
      "genre_ids": [
        18,
        80
      ],
      "backdrop_path": "/j9XKiZrVeViAixVRzCta7h1VU9W.jpg",
      "adult": false,
      "overview": "En 1947, Andy Dufresne, un jeune banquier, est condamné à la prison à vie pour le meurtre de sa femme et de son amant. Ayant beau clamer son innocence, il est emprisonné à Shawshank, le pénitencier le plus sévère de l'Etat du Maine. Il y fait la rencontre de Red, un Noir désabusé, détenu depuis vingt ans. Commence alors une grande histoire d'amitié entre les deux hommes...",
      "release_date": "1994-09-23"
    },
    {
      "vote_count": 9174,
      "id": 238,
      "video": false,
      "vote_average": 8.6,
      "title": "Le Parrain",
      "popularity": 30.652,
      "poster_path": "/j0O2PYvV2INW64jmTc4e5IVqQsz.jpg",
      "original_language": "en",
      "original_title": "The Godfather",
      "genre_ids": [
        18,
        80
      ],
      "backdrop_path": "/6xKCYgH16UuwEGAyroLU6p8HLIn.jpg",
      "adult": false,
      "overview": "En 1945, à New York, les Corleone sont une des cinq familles de la mafia. Don Vito Corleone, \"parrain\" de cette famille, marie sa fille à un bookmaker. Sollozzo, \" parrain \" de la famille Tattaglia, propose à Don Vito une association dans le trafic de drogue, mais celui-ci refuse. Sonny, un de ses fils, y est quant à lui favorable.\r Afin de traiter avec Sonny, Sollozzo tente de faire tuer Don Vito, mais celui-ci en réchappe. Michael, le frère cadet de Sonny, recherche alors les commanditaires de l'attentat et tue Sollozzo et le chef de la police, en représailles.\r Michael part alors en Sicile, où il épouse Apollonia, mais celle-ci est assassinée à sa place. De retour à New York, Michael épouse Kay Adams et se prépare à devenir le successeur de son père...",
      "release_date": "1972-03-14"
    },
    {
      "vote_count": 3494,
      "id": 372058,
      "video": false,
      "vote_average": 8.6,
      "title": "Your Name.",
      "popularity": 23.118,
      "poster_path": "/xq1Ugd62d23K2knRUx6xxuALTZB.jpg",
      "original_language": "ja",
      "original_title": "君の名は。",
      "genre_ids": [
        10749,
        16,
        18
      ],
      "backdrop_path": "/6vkhRvsRvWpmaRVyCXaxTkIEb7j.jpg",
      "adult": false,
      "overview": "Mitsuha est une lycéenne, la fille du maire d'une petite ville nichée entre les montagnes. Vivant avec sa petite sœur et sa grand-mère, c'est une demoiselle franche qui n'hésite pas à dire qu'elle n'a pas envie de participer aux rituels shinto, ou d'aider son père dans ses campagnes électorales. En fait, elle rêve de pouvoir quitter cette ville où elle s'ennuie, pour partir tenter sa chance à la capitale.  Taki est un lycéen, un tokyoïte qui travaille à mi-temps dans un restaurant italien, tout en aspirant à des études d'architecture ou dans les Beaux-Arts. Chaque nuit, il fait un rêve étrange, où il devient... une lycéenne campagnarde, vivant dans une petite ville entre les montagnes.  Quel secret se cache derrière ces rêves mutuels, qui unissent ces deux êtres qui ne se sont jamais rencontrés ?",
      "release_date": "2016-08-26"
    },
    {
      "vote_count": 7179,
      "id": 424,
      "video": false,
      "vote_average": 8.5,
      "title": "La liste de Schindler",
      "popularity": 23.292,
      "poster_path": "/50lwfDv65P9Dy1GVnhSLK67zNCz.jpg",
      "original_language": "en",
      "original_title": "Schindler's List",
      "genre_ids": [
        18,
        36,
        10752
      ],
      "backdrop_path": "/cTNYRUTXkBgPH3wP3kmPUB5U6dA.jpg",
      "adult": false,
      "overview": "Évocation des années de guerre d'Oskar Schindler, fils d'industriel d'origine autrichienne rentré à Cracovie en 1939 avec les troupes allemandes. Il va, tout au long de la guerre, protéger des juifs en les faisant travailler dans sa fabrique et en 1944 sauver 800 hommes et 300 femmes du camp d'extermination d'Auschwitz-Birkenau.",
      "release_date": "1993-12-15"
    },
    {
      "vote_count": 1196,
      "id": 324857,
      "video": false,
      "vote_average": 8.5,
      "title": "Spider-Man : New Generation",
      "popularity": 186.132,
      "poster_path": "/zthEwOWBbqKitZzFRJnhU5GMXug.jpg",
      "original_language": "en",
      "original_title": "Spider-Man: Into the Spider-Verse",
      "genre_ids": [
        28,
        12,
        16,
        878,
        35
      ],
      "backdrop_path": "/shROD2YqREzo4TuonTsTVnnjpPC.jpg",
      "adult": false,
      "overview": "SPIDER-MAN : NEW GENERATION présente Miles Morales, un adolescent vivant à Brooklyn, et révèle les possibilités illimitées du Spider-Verse, un univers où plus d’un peut porter le masque…",
      "release_date": "2018-12-07"
    },
    {
      "vote_count": 5357,
      "id": 240,
      "video": false,
      "vote_average": 8.5,
      "title": "Le Parrain, 2ème partie",
      "popularity": 19.038,
      "poster_path": "/mbdznNojYg8a0CjGsfqXerpRKzm.jpg",
      "original_language": "en",
      "original_title": "The Godfather: Part II",
      "genre_ids": [
        18,
        80
      ],
      "backdrop_path": "/gLbBRyS7MBrmVUNce91Hmx9vzqI.jpg",
      "adult": false,
      "overview": "Depuis la mort de Don Vito Corleone, son fils Michael règne sur la famille. Amené à  négocier avec la mafia juive, il perd alors le soutien d'un de ses lieutenants, Frankie Pentageli. Échappant de justesse à un attentat, Michael tente de retrouver le coupable.",
      "release_date": "1974-12-20"
    },
    {
      "vote_count": 6674,
      "id": 129,
      "video": false,
      "vote_average": 8.5,
      "title": "Le voyage de Chihiro",
      "popularity": 24.062,
      "poster_path": "/3i5UpVMYKAI8foP5LJNjnf9qwjm.jpg",
      "original_language": "ja",
      "original_title": "千と千尋の神隠し",
      "genre_ids": [
        16,
        10751,
        14
      ],
      "backdrop_path": "/mnpRKVSXBX6jb56nabvmGKA0Wig.jpg",
      "adult": false,
      "overview": "Chihiro, 10 ans, a tout d'une petite fille capricieuse. Elle s'apprête à emménager avec ses parents dans une nouvelle demeure. Sur la route, la petite famille se retrouve face à un immense bâtiment rouge au centre duquel s'ouvre un long tunnel. De l'autre côté du passage se dresse une ville fantôme. Les parents découvrent dans un restaurant désert de nombreux mets succulents et ne tardent pas à se jeter dessus. Ils se retrouvent alors transformés en cochons. Prise de panique, Chihiro s'enfuit et se dématérialise progressivement. L'énigmatique Haku se charge de lui expliquer le fonctionnement de l'univers dans lequel elle vient de pénétrer. Pour sauver ses parents, la fillette va devoir faire face à la terrible sorcière Yubaba, qui arbore les traits d'une harpie méphistophélique.",
      "release_date": "2001-07-20"
    },
    {
      "vote_count": 7350,
      "id": 497,
      "video": false,
      "vote_average": 8.4,
      "title": "La Ligne verte",
      "popularity": 21.863,
      "poster_path": "/lNNe9VghX4RmFB3r11dlREXKW7.jpg",
      "original_language": "en",
      "original_title": "The Green Mile",
      "genre_ids": [
        14,
        18,
        80
      ],
      "backdrop_path": "/Rlt20sEbOQKPVjia7lUilFm49W.jpg",
      "adult": false,
      "overview": "Paul Edgecomb, pensionnaire centenaire d'une maison de retraite, est hanté par ses souvenirs. Gardien-chef du pénitencier de Cold Mountain en 1935, il était chargé de veiller au bon déroulement des exécutions capitales en s'efforcant d'adoucir les derniers moments des condamnés. Parmi eux se trouvait un colosse du nom de John Coffey, accusé du viol et du meurtre de deux fillettes. Intrigué par cet homme candide et timide aux dons magiques, Edgecomb va tisser avec lui des liens très forts.",
      "release_date": "1999-12-10"
    },
    {
      "vote_count": 6551,
      "id": 637,
      "video": false,
      "vote_average": 8.4,
      "title": "La Vie est belle",
      "popularity": 19.886,
      "poster_path": "/c6NveyskoKlwAvouqEmKBRU0Pkp.jpg",
      "original_language": "it",
      "original_title": "La vita è bella",
      "genre_ids": [
        35,
        18
      ],
      "backdrop_path": "/bORe0eI72D874TMawOOFvqWS6Xe.jpg",
      "adult": false,
      "overview": "En 1938, Guido, jeune homme plein de gaieté, rêve d'ouvrir une librairie, malgré les tracasseries de l'administration fasciste. Il tombe amoureux de Dora, institutrice étouffée par le conformisme familial et l'enlève le jour de ses fiançailles avec un bureaucrate du régime. Cinq ans plus tard, Guido et Dora ont un fils: Giosue. Mais les lois raciales sont entrées en vigueur et Guido est juif. Il est alors déporté avec son fils. Par amour pour eux, Dora monte de son plein gré dans le train qui les emmène aux camps de la mort où Guido va tout faire pour éviter l'horreur à son fils...",
      "release_date": "1997-12-20"
    },
    {
      "vote_count": 13827,
      "id": 680,
      "video": false,
      "vote_average": 8.4,
      "title": "Pulp Fiction",
      "popularity": 36.433,
      "poster_path": "/7p8x4U3o3p1JZMBqNY3zAlobY3m.jpg",
      "original_language": "en",
      "original_title": "Pulp Fiction",
      "genre_ids": [
        53,
        80
      ],
      "backdrop_path": "/4cDFJr4HnXN5AdPw4AKrmLlMWdO.jpg",
      "adult": false,
      "overview": "L'odyssée sanglante et burlesque de petits malfrats dans la jungle d'Hollywood : deux petits tueurs, un dangereux gangster marié à une camée, un boxeur roublard, des prêteurs sur gages sadiques, un caïd élégant et dévoué, un dealer bon mari et de deux tourtereaux à la gâchette facile.",
      "release_date": "1994-09-10"
    },
    {
      "vote_count": 4391,
      "id": 539,
      "video": false,
      "vote_average": 8.4,
      "title": "Psychose",
      "popularity": 16.185,
      "poster_path": "/z82TaRvjLTVFLvv7hsPMAUmXR9R.jpg",
      "original_language": "en",
      "original_title": "Psycho",
      "genre_ids": [
        18,
        27,
        53,
        9648
      ],
      "backdrop_path": "/12RDCQZNYQib19nep7sgOy5Mxij.jpg",
      "adult": false,
      "overview": "Marion Crane en a assez de ne pouvoir mener sa vie comme elle l'entend. Son travail ne la passionne plus, son amant ne peut l'épouser car il doit verser une énorme pension alimentaire le laissant sans le sou... Mais un beau jour, son patron lui demande de déposer 40 000 dollars à la banque. La tentation est trop grande, et Marion s'enfuit avec l'argent. Très vite la panique commence à se faire sentir. Partagée entre l'angoisse de se faire prendre et l'excitation de mener une nouvelle vie, Marion roule vers une destination qu'elle n'atteindra jamais. La pluie est battante, la jeune femme s'arrête près d'un motel, tenu par un sympathique gérant nommé Norman Bates, mais qui doit supporter le caractère possessif de sa mère. Après un copieux repas avec Norman, Marion prend toutes ses précautions afin de dissimuler l'argent. Pour se délasser de cette journée, elle prend une douche...",
      "release_date": "1960-06-16"
    },
    {
      "vote_count": 17524,
      "id": 155,
      "video": false,
      "vote_average": 8.4,
      "title": "The Dark Knight : Le Chevalier noir",
      "popularity": 39.691,
      "poster_path": "/sr8tdzgBj29H8rItNP9e5h097A2.jpg",
      "original_language": "en",
      "original_title": "The Dark Knight",
      "genre_ids": [
        18,
        28,
        80,
        53
      ],
      "backdrop_path": "/hqkIcbrOHL86UncnHIsHVcVmzue.jpg",
      "adult": false,
      "overview": "Dans ce nouveau volet, Batman augmente les mises dans sa guerre contre le crime. Avec l'appui du lieutenant de police Jim Gordon et du procureur de Gotham, Harvey Dent, Batman vise à éradiquer le crime organisé qui pullule dans la ville. Leur association est très efficace mais elle sera bientôt bouleversée par le chaos déclenché par un criminel extraordinaire que les citoyens de Gotham connaissent sous le nom de Joker.",
      "release_date": "2008-07-16"
    },
    {
      "vote_count": 14980,
      "id": 550,
      "video": false,
      "vote_average": 8.4,
      "title": "Fight Club",
      "popularity": 30.584,
      "poster_path": "/zu1BxIKlhTXXIATPINnzg2rwy97.jpg",
      "original_language": "en",
      "original_title": "Fight Club",
      "genre_ids": [
        18
      ],
      "backdrop_path": "/87hTDiay2N2qWyX4Ds7ybXi9h8I.jpg",
      "adult": false,
      "overview": "Le narrateur, sans identité précise, vit seul, travaille seul, dort seul, mange seul ses plateaux-repas pour une personne comme beaucoup d’autres personnes seules qui connaissent la misère humaine, morale et sexuelle. C’est pourquoi il va devenir membre du Fight club, un lieu clandestin où il va pouvoir retrouver sa virilité, l’échange et la communication. Ce club est dirigé par Tyler Durden, une sorte d’anarchiste entre gourou et philosophe qui prêche l’amour de son prochain.",
      "release_date": "1999-10-15"
    },
    {
      "vote_count": 1335,
      "id": 346,
      "video": false,
      "vote_average": 8.4,
      "title": "Les sept samouraïs",
      "popularity": 12.999,
      "poster_path": "/itaaGjeYL5ZzufV8BOxkTYQxx4K.jpg",
      "original_language": "ja",
      "original_title": "七人の侍",
      "genre_ids": [
        28,
        18
      ],
      "backdrop_path": "/61vLiK96sbXeHpQiMxI4CuqBA3z.jpg",
      "adult": false,
      "overview": "Au XVIè siècle, au Japon, des paysans décident d'embaucher des samouraïs pour protéger leur village, et en trouvent sept. Ces hommes organisent la défense du village contre quarante brigands.",
      "release_date": "1954-04-26"
    },
    {
      "vote_count": 231,
      "id": 452522,
      "video": false,
      "vote_average": 8.4,
      "title": "Twin Peaks",
      "popularity": 10.82,
      "poster_path": "/zQsEi6096L7PvowV39dtdqdW16f.jpg",
      "original_language": "en",
      "original_title": "Twin Peaks",
      "genre_ids": [
        18,
        9648
      ],
      "backdrop_path": "/xqjGKLwLZeujg4fiBTOqhZkoL31.jpg",
      "adult": false,
      "overview": "",
      "release_date": "1989-12-31"
    },
    {
      "vote_count": 205,
      "id": 26451,
      "video": false,
      "vote_average": 8.4,
      "title": "Enquête sur un citoyen au-dessus de tout soupçon",
      "popularity": 9.588,
      "poster_path": "/aHiFaZ6GdUHCWMGBhQPPjOThSkw.jpg",
      "original_language": "it",
      "original_title": "Indagine su un cittadino al di sopra di ogni sospetto",
      "genre_ids": [
        18,
        80
      ],
      "backdrop_path": "/tJaeWoH1UJPyeIU2yd9YJgeghFC.jpg",
      "adult": false,
      "overview": "En Italie, au début des années 70, le chef de la brigade criminelle est sur le point d’être promu au poste de directeur de la section politique. Persuadé que ses fonctions le placent au-dessus des lois, il égorge sa maîtresse, Augusta Terzi, au cours de leurs joutes amoureuses. Avec un sang-froid parfait, il met tout en œuvre pour prouver que personne n'aura l'intelligence, ni même l'audace, de le soupçonner et de troubler ainsi la bonne hiérarchie sociale. Il s'ingénie à semer des preuves accablantes, relançant l'enquête quand celle-ci s'égare...",
      "release_date": "1970-02-09"
    },
    {
      "vote_count": 13355,
      "id": 13,
      "video": false,
      "vote_average": 8.4,
      "title": "Forrest Gump",
      "popularity": 26.365,
      "poster_path": "/4D8CoCW07df1Ryb2qFyY7lxBRGK.jpg",
      "original_language": "en",
      "original_title": "Forrest Gump",
      "genre_ids": [
        35,
        18,
        10749
      ],
      "backdrop_path": "/wMgbnUVS9wbRGAdki8fqxKU1O0N.jpg",
      "adult": false,
      "overview": "Forrest Gump est le symbole d'une époque, un candide dans une Amérique qui a perdu son innocence. Merveilleusement interprété par Tom Hanks, Forrest vit une série d'aventures, de l'état d'handicapé physique à celui de star du football, de héros du Vietnam au roi de la crevette, des honneurs de la Maison Blanche au bonheur d'une grande histoire d'amour. Son cœur dépasse les limites de son Q.I.",
      "release_date": "1994-07-06"
    },
    {
      "vote_count": 270,
      "id": 18491,
      "video": false,
      "vote_average": 8.4,
      "title": "Neon Genesis Evangelion: The End of Evangelion",
      "popularity": 7.521,
      "poster_path": "/5JYzfyKBwReaQ41WFhqXgOZnPWV.jpg",
      "original_language": "ja",
      "original_title": "新世紀エヴァンゲリオン劇場版 THE END OF EVANGELION",
      "genre_ids": [
        18,
        878,
        16
      ],
      "backdrop_path": "/AfyuI3glMCBDFmNPj9PY6DwbgGp.jpg",
      "adult": false,
      "overview": "Composé de 2 parties:  La première, Episode 25' : Air/Love is Destruction (qui reprend la partie Rebirth du film précédent avec une dizaine de minutes d'animation en plus).  La seconde, Episode 26' : まごころを、君に (Magokoro wo, Kimi ni/Sincèrement vôtre, ou Mon cœur pur pour toi)/I need you.  Alors que la NERV, le dernier rempart contre les Anges est assaillie par les militaires qui massacrent tout sur leur passage, Asuka mène un combat sans merci contre les neuf EVAs. Le monde se prépare à subir le Troisième Impact.",
      "release_date": "1997-07-19"
    },
    {
      "vote_count": 1810,
      "id": 12477,
      "video": false,
      "vote_average": 8.4,
      "title": "Le tombeau des lucioles",
      "popularity": 0.6,
      "poster_path": "/dbkukPc8gQlbPmNT1tSUvmDJKft.jpg",
      "original_language": "ja",
      "original_title": "火垂るの墓",
      "genre_ids": [
        16,
        18,
        10752
      ],
      "backdrop_path": "/fCUIuG7y4YKC3hofZ8wsj7zhCpR.jpg",
      "adult": false,
      "overview": "Japon, été 1945. Après le bombardement de Kobé, Seita, un adolescent de quatorze ans et sa petite sœur de quatre ans, Setsuko, orphelins, vont s'installer chez leur tante à quelques dizaines de kilomètres de chez eux. Celle-ci leur fait comprendre qu'ils sont une gêne pour la famille et doivent mériter leur riz quotidien. Seita décide de partir avec sa petite sœur. Ils se réfugient dans un bunker désaffecté en pleine campagne et vivent des jours heureux illuminés par la présence de milliers de lucioles. Mais bientôt la nourriture commence cruellement à manquer.",
      "release_date": "1988-04-16"
    }
  ]
}